{
  "config": {
    "feature": {
      "config": {
        "feature": {
           "config": {
             "probability": 0.2
           },
           "type": "tardis:moon_crator"
         },
         "decorator": {
            "config": {},
            "type": "minecraft:heightmap_world_surface"
         }
      },
      "decorator": {
          "config": {},
          "type": "minecraft:square"
      },
      "type": "minecraft:decorated"
    },
    "decorator": {
      "config": {
        "chance": 14
      },
      "type": "minecraft:chance"
    }
  },
  "type": "minecraft:decorated"
}