{
	"credit": "Made with Blockbench",
	"texture_size": [64, 64],
	"textures": {
		"0": "tardis:block/artron_collector",
		"particle": "tardis:block/artron_collector"
	},
	"elements": [
		{
			"from": [0, 0, 0],
			"to": [16, 3, 16],
			"faces": {
				"north": {"uv": [4, 4, 8, 4.75], "texture": "#0"},
				"east": {"uv": [0, 4, 4, 4.75], "texture": "#0"},
				"south": {"uv": [12, 4, 16, 4.75], "texture": "#0"},
				"west": {"uv": [8, 4, 12, 4.75], "texture": "#0"},
				"up": {"uv": [8, 4, 4, 0], "texture": "#0"},
				"down": {"uv": [12, 0, 8, 4], "texture": "#0"}
			}
		},
		{
			"from": [4, 8.5, 4],
			"to": [12, 13.5, 12],
			"rotation": {"angle": 0, "axis": "y", "origin": [10, 15, 15]},
			"faces": {
				"north": {"uv": [10, 14, 12, 15.25], "texture": "#0"},
				"east": {"uv": [8, 14, 10, 15.25], "texture": "#0"},
				"south": {"uv": [14, 14, 16, 15.25], "texture": "#0"},
				"west": {"uv": [12, 14, 14, 15.25], "texture": "#0"},
				"up": {"uv": [12, 14, 10, 12], "texture": "#0"},
				"down": {"uv": [14, 12, 12, 14], "texture": "#0"}
			}
		},
		{
			"from": [6, 16.5, 6],
			"to": [10, 17.5, 10],
			"rotation": {"angle": 0, "axis": "y", "origin": [10, 17, 15]},
			"faces": {
				"north": {"uv": [1, 3.5, 2, 3.75], "texture": "#0"},
				"east": {"uv": [0, 3.5, 1, 3.75], "texture": "#0"},
				"south": {"uv": [3, 3.5, 4, 3.75], "texture": "#0"},
				"west": {"uv": [2, 3.5, 3, 3.75], "texture": "#0"},
				"up": {"uv": [2, 3.5, 1, 2.5], "texture": "#0"},
				"down": {"uv": [3, 2.5, 2, 3.5], "texture": "#0"}
			}
		},
		{
			"from": [7, 13.5, 7],
			"to": [9, 16.5, 9],
			"rotation": {"angle": 0, "axis": "y", "origin": [10, 16, 15]},
			"faces": {
				"north": {"uv": [10.25, 5.25, 10.75, 6], "texture": "#0"},
				"east": {"uv": [9.75, 5.25, 10.25, 6], "texture": "#0"},
				"south": {"uv": [11.25, 5.25, 11.75, 6], "texture": "#0"},
				"west": {"uv": [10.75, 5.25, 11.25, 6], "texture": "#0"},
				"up": {"uv": [10.75, 5.25, 10.25, 4.75], "texture": "#0"},
				"down": {"uv": [11.25, 4.75, 10.75, 5.25], "texture": "#0"}
			}
		},
		{
			"from": [2.5, 4, 2.5],
			"to": [13.5, 8.5, 13.5],
			"rotation": {"angle": 0, "axis": "y", "origin": [8, 8.75, 8]},
			"faces": {
				"north": {"uv": [2.75, 11, 5.5, 12], "texture": "#0"},
				"east": {"uv": [0, 11, 2.75, 12], "texture": "#0"},
				"south": {"uv": [8.25, 11, 11, 12], "texture": "#0"},
				"west": {"uv": [5.5, 11, 8.25, 12], "texture": "#0"},
				"up": {"uv": [5.5, 11, 2.75, 8.25], "texture": "#0"},
				"down": {"uv": [8.25, 8.25, 5.5, 11], "texture": "#0"}
			}
		},
		{
			"from": [1.5, 3, 1.5],
			"to": [14.5, 4.5, 14.5],
			"rotation": {"angle": 0, "axis": "y", "origin": [8, 6.75, 8]},
			"faces": {
				"north": {"uv": [3.25, 8, 6.5, 8.25], "texture": "#0"},
				"east": {"uv": [0, 8, 3.25, 8.25], "texture": "#0"},
				"south": {"uv": [9.75, 8, 13, 8.25], "texture": "#0"},
				"west": {"uv": [6.5, 8, 9.75, 8.25], "texture": "#0"},
				"up": {"uv": [6.5, 8, 3.25, 4.75], "texture": "#0"},
				"down": {"uv": [9.75, 4.75, 6.5, 8], "texture": "#0"}
			}
		},
		{
			"from": [1.5, 8, 6.5],
			"to": [4.5, 15, 9.5],
			"rotation": {"angle": 0, "axis": "y", "origin": [-1.5, 24, 12.5]},
			"faces": {
				"north": {"uv": [0.75, 0.75, 1.5, 2.5], "texture": "#0"},
				"east": {"uv": [0, 0.75, 0.75, 2.5], "texture": "#0"},
				"south": {"uv": [2.25, 0.75, 3, 2.5], "texture": "#0"},
				"west": {"uv": [1.5, 0.75, 2.25, 2.5], "texture": "#0"},
				"up": {"uv": [1.5, 0.75, 0.75, 0], "texture": "#0"},
				"down": {"uv": [2.25, 0, 1.5, 0.75], "texture": "#0"}
			}
		},
		{
			"from": [11.5, 8, 6.5],
			"to": [14.5, 15, 9.5],
			"rotation": {"angle": 0, "axis": "y", "origin": [8.5, 24, 12.5]},
			"faces": {
				"north": {"uv": [0.75, 0.75, 1.5, 2.5], "texture": "#0"},
				"east": {"uv": [0, 0.75, 0.75, 2.5], "texture": "#0"},
				"south": {"uv": [2.25, 0.75, 3, 2.5], "texture": "#0"},
				"west": {"uv": [1.5, 0.75, 2.25, 2.5], "texture": "#0"},
				"up": {"uv": [1.5, 0.75, 0.75, 0], "texture": "#0"},
				"down": {"uv": [2.25, 0, 1.5, 0.75], "texture": "#0"}
			}
		},
		{
			"from": [6.5, 8, 11.5],
			"to": [9.5, 15, 14.5],
			"rotation": {"angle": 0, "axis": "y", "origin": [3.5, 24, 17.5]},
			"faces": {
				"north": {"uv": [0.75, 0.75, 1.5, 2.5], "texture": "#0"},
				"east": {"uv": [0, 0.75, 0.75, 2.5], "texture": "#0"},
				"south": {"uv": [2.25, 0.75, 3, 2.5], "texture": "#0"},
				"west": {"uv": [1.5, 0.75, 2.25, 2.5], "texture": "#0"},
				"up": {"uv": [1.5, 0.75, 0.75, 0], "texture": "#0"},
				"down": {"uv": [2.25, 0, 1.5, 0.75], "texture": "#0"}
			}
		},
		{
			"from": [6.5, 8, 1.5],
			"to": [9.5, 15, 4.5],
			"rotation": {"angle": 0, "axis": "y", "origin": [3.5, 24, 7.5]},
			"faces": {
				"north": {"uv": [0.75, 0.75, 1.5, 2.5], "texture": "#0"},
				"east": {"uv": [0, 0.75, 0.75, 2.5], "texture": "#0"},
				"south": {"uv": [2.25, 0.75, 3, 2.5], "texture": "#0"},
				"west": {"uv": [1.5, 0.75, 2.25, 2.5], "texture": "#0"},
				"up": {"uv": [1.5, 0.75, 0.75, 0], "texture": "#0"},
				"down": {"uv": [2.25, 0, 1.5, 0.75], "texture": "#0"}
			}
		},
		{
			"from": [6.75, 7, 11.58579],
			"to": [9.25, 9.5, 14.08579],
			"rotation": {"angle": -45, "axis": "x", "origin": [8, 8, 13.08579]},
			"faces": {
				"north": {"uv": [0.5, 10.5, 1, 11], "texture": "#0"},
				"east": {"uv": [0, 10.5, 0.5, 11], "texture": "#0"},
				"south": {"uv": [1.5, 10.5, 2, 11], "texture": "#0"},
				"west": {"uv": [1, 10.5, 1.5, 11], "texture": "#0"},
				"up": {"uv": [1, 10.5, 0.5, 10], "texture": "#0"},
				"down": {"uv": [1.5, 10, 1, 10.5], "texture": "#0"}
			}
		},
		{
			"from": [1.84099, 6.82322, 6.75],
			"to": [4.34099, 9.32322, 9.25],
			"rotation": {"angle": -45, "axis": "z", "origin": [3.09099, 7.82322, 8.875]},
			"faces": {
				"north": {"uv": [0.5, 10.5, 1, 11], "texture": "#0"},
				"east": {"uv": [0, 10.5, 0.5, 11], "texture": "#0"},
				"south": {"uv": [1.5, 10.5, 2, 11], "texture": "#0"},
				"west": {"uv": [1, 10.5, 1.5, 11], "texture": "#0"},
				"up": {"uv": [1, 10.5, 0.5, 10], "texture": "#0"},
				"down": {"uv": [1.5, 10, 1, 10.5], "texture": "#0"}
			}
		},
		{
			"from": [11.30546, 6.82322, 6.75],
			"to": [13.80546, 9.32322, 9.25],
			"rotation": {"angle": -45, "axis": "z", "origin": [12.55546, 7.82322, 8.25]},
			"faces": {
				"north": {"uv": [0.5, 10.5, 1, 11], "texture": "#0"},
				"east": {"uv": [0, 10.5, 0.5, 11], "texture": "#0"},
				"south": {"uv": [1.5, 10.5, 2, 11], "texture": "#0"},
				"west": {"uv": [1, 10.5, 1.5, 11], "texture": "#0"},
				"up": {"uv": [1, 10.5, 0.5, 10], "texture": "#0"},
				"down": {"uv": [1.5, 10, 1, 10.5], "texture": "#0"}
			}
		},
		{
			"from": [6.75, 7, 2.12132],
			"to": [9.25, 9.5, 4.62132],
			"rotation": {"angle": -45, "axis": "x", "origin": [8, 8, 3.62132]},
			"faces": {
				"north": {"uv": [0.5, 10.5, 1, 11], "texture": "#0"},
				"east": {"uv": [0, 10.5, 0.5, 11], "texture": "#0"},
				"south": {"uv": [1.5, 10.5, 2, 11], "texture": "#0"},
				"west": {"uv": [1, 10.5, 1.5, 11], "texture": "#0"},
				"up": {"uv": [1, 10.5, 0.5, 10], "texture": "#0"},
				"down": {"uv": [1.5, 10, 1, 10.5], "texture": "#0"}
			}
		},
		{
			"from": [6, 13.58579, 12.5],
			"to": [10, 19.58579, 13.5],
			"rotation": {"angle": 45, "axis": "x", "origin": [8.04289, 14.29289, 13]},
			"faces": {
				"north": {"uv": [0.25, 8.5, 1.25, 10], "texture": "#0"},
				"east": {"uv": [0, 8.5, 0.25, 10], "texture": "#0"},
				"south": {"uv": [1.5, 8.5, 2.5, 10], "texture": "#0"},
				"west": {"uv": [1.25, 8.5, 1.5, 10], "texture": "#0"},
				"up": {"uv": [1.25, 8.5, 0.25, 8.25], "texture": "#0"},
				"down": {"uv": [2.25, 8.25, 1.25, 8.5], "texture": "#0"}
			}
		},
		{
			"from": [7.08579, 17, 10],
			"to": [9.08579, 19, 14],
			"rotation": {"angle": 45, "axis": "x", "origin": [8.04289, 14.29289, 13]},
			"faces": {
				"north": {"uv": [9.25, 9.25, 9.75, 9.75], "texture": "#0"},
				"east": {"uv": [8.25, 9.25, 9.25, 9.75], "texture": "#0"},
				"south": {"uv": [10.75, 9.25, 11.25, 9.75], "texture": "#0"},
				"west": {"uv": [9.75, 9.25, 10.75, 9.75], "texture": "#0"},
				"up": {"uv": [9.75, 9.25, 9.25, 8.25], "texture": "#0"},
				"down": {"uv": [10.25, 8.25, 9.75, 9.25], "texture": "#0"}
			}
		},
		{
			"from": [6, 13.58579, 2.5],
			"to": [10, 19.58579, 3.5],
			"rotation": {"angle": -45, "axis": "x", "origin": [8.04289, 14.29289, 3.25]},
			"faces": {
				"north": {"uv": [0.25, 8.5, 1.25, 10], "texture": "#0"},
				"east": {"uv": [0, 8.5, 0.25, 10], "texture": "#0"},
				"south": {"uv": [1.5, 8.5, 2.5, 10], "texture": "#0"},
				"west": {"uv": [1.25, 8.5, 1.5, 10], "texture": "#0"},
				"up": {"uv": [1.25, 8.5, 0.25, 8.25], "texture": "#0"},
				"down": {"uv": [2.25, 8.25, 1.25, 8.5], "texture": "#0"}
			}
		},
		{
			"from": [7.08579, 16.75, 2],
			"to": [9.08579, 18.75, 6],
			"rotation": {"angle": -45, "axis": "x", "origin": [8.04289, 14.29289, 3.25]},
			"faces": {
				"north": {"uv": [9.25, 9.25, 9.75, 9.75], "texture": "#0"},
				"east": {"uv": [8.25, 9.25, 9.25, 9.75], "texture": "#0"},
				"south": {"uv": [10.75, 9.25, 11.25, 9.75], "texture": "#0"},
				"west": {"uv": [9.75, 9.25, 10.75, 9.75], "texture": "#0"},
				"up": {"uv": [9.75, 9.25, 9.25, 8.25], "texture": "#0"},
				"down": {"uv": [10.25, 8.25, 9.75, 9.25], "texture": "#0"}
			}
		},
		{
			"from": [2.375, 13.58579, 6],
			"to": [3.375, 19.58579, 10],
			"rotation": {"angle": 45, "axis": "z", "origin": [2.91789, 14.29289, 8]},
			"faces": {
				"north": {"uv": [1, 5.75, 1.25, 7.25], "texture": "#0"},
				"east": {"uv": [0, 5.75, 1, 7.25], "texture": "#0"},
				"south": {"uv": [2.25, 5.75, 2.5, 7.25], "texture": "#0"},
				"west": {"uv": [1.25, 5.75, 2.25, 7.25], "texture": "#0"},
				"up": {"uv": [1.25, 5.75, 1, 4.75], "texture": "#0"},
				"down": {"uv": [1.5, 4.75, 1.25, 5.75], "texture": "#0"}
			}
		},
		{
			"from": [1.96079, 16.5, 7],
			"to": [5.96079, 18.5, 9],
			"rotation": {"angle": 45, "axis": "z", "origin": [2.91789, 13.79289, 8]},
			"faces": {
				"north": {"uv": [8.75, 10.25, 9.75, 10.75], "texture": "#0"},
				"east": {"uv": [8.25, 10.25, 8.75, 10.75], "texture": "#0"},
				"south": {"uv": [10.25, 10.25, 11.25, 10.75], "texture": "#0"},
				"west": {"uv": [9.75, 10.25, 10.25, 10.75], "texture": "#0"},
				"up": {"uv": [9.75, 10.25, 8.75, 9.75], "texture": "#0"},
				"down": {"uv": [10.75, 9.75, 9.75, 10.25], "texture": "#0"}
			}
		},
		{
			"from": [12.625, 13.58579, 6],
			"to": [13.625, 19.58579, 10],
			"rotation": {"angle": -45, "axis": "z", "origin": [13.16789, 14.29289, 8]},
			"faces": {
				"north": {"uv": [1, 5.75, 1.25, 7.25], "texture": "#0"},
				"east": {"uv": [0, 5.75, 1, 7.25], "texture": "#0"},
				"south": {"uv": [2.25, 5.75, 2.5, 7.25], "texture": "#0"},
				"west": {"uv": [1.25, 5.75, 2.25, 7.25], "texture": "#0"},
				"up": {"uv": [1.25, 5.75, 1, 4.75], "texture": "#0"},
				"down": {"uv": [1.5, 4.75, 1.25, 5.75], "texture": "#0"}
			}
		},
		{
			"from": [10.21079, 17, 7],
			"to": [14.21079, 19, 9],
			"rotation": {"angle": -45, "axis": "z", "origin": [13.16789, 14.29289, 8]},
			"faces": {
				"north": {"uv": [8.75, 10.25, 9.75, 10.75], "texture": "#0"},
				"east": {"uv": [8.25, 10.25, 8.75, 10.75], "texture": "#0"},
				"south": {"uv": [10.25, 10.25, 11.25, 10.75], "texture": "#0"},
				"west": {"uv": [9.75, 10.25, 10.25, 10.75], "texture": "#0"},
				"up": {"uv": [9.75, 10.25, 8.75, 9.75], "texture": "#0"},
				"down": {"uv": [10.75, 9.75, 9.75, 10.25], "texture": "#0"}
			}
		}
	],
	"display": {
		"thirdperson_righthand": {
			"rotation": [0, 45, 0],
			"translation": [0.5, 0.5, -0.5],
			"scale": [0.25, 0.25, 0.25]
		},
		"thirdperson_lefthand": {
			"rotation": [0, 45, 0],
			"translation": [0.5, 0.5, 0.5],
			"scale": [0.25, 0.25, 0.25]
		},
		"firstperson_righthand": {
			"rotation": [0, 0, 20],
			"translation": [0, 0, -2],
			"scale": [0.5, 0.5, 0.5]
		},
		"firstperson_lefthand": {
			"rotation": [0, 0, 20],
			"translation": [0, 0, -2],
			"scale": [0.5, 0.5, 0.5]
		},
		"ground": {
			"scale": [0.25, 0.25, 0.25]
		},
		"gui": {
			"rotation": [30, 45, 0],
			"scale": [0.5, 0.5, 0.5]
		},
		"fixed": {
			"scale": [0.5, 0.5, 0.5]
		}
	},
	"groups": [
		{
			"name": "base",
			"origin": [8, 16, 8],
			"children": [0, 1, 2, 3, 4, 5]
		},
		{
			"name": "strut",
			"origin": [-1.5, 24, 12.5],
			"children": [6, 7, 8, 9,
				{
					"name": "group",
					"origin": [8, 11, 13.08579],
					"children": [10, 11, 12, 13]
				}
			]
		},
		{
			"name": "focus",
			"origin": [1.5, 21.25, 8],
			"children": [
				{
					"name": "focus_plate",
					"origin": [1.5, 21.25, 8],
					"children": [14, 15]
				},
				{
					"name": "focus_plate",
					"origin": [1.5, 21.25, 8],
					"children": [16, 17]
				},
				{
					"name": "focus_plate",
					"origin": [1.5, 21.25, 8],
					"children": [18, 19]
				},
				{
					"name": "focus_plate",
					"origin": [1.5, 21.25, 8],
					"children": [20, 21]
				}
			]
		}
	]
}