{
    "parent": "block/slab_top",
    "textures": {
        "bottom": "tardis:block/metal_grate",
        "top": "tardis:block/metal_grate",
        "side": "tardis:block/metal_grate_slab_side"
    }
}
