{
    "variants":{
	    "activated=true": {
            "model": "tardis:block/transduction_barrier_on"
        },
        "activated=false": {
            "model": "tardis:block/transduction_barrier_off"
        }
    }
}