{
	"credit": "Made with Blockbench",
	"textures": {
		"0": "tardis:item/vm",
		"particle": "tardis:item/vm"
	},
	"elements": [
		{
			"from": [4, 9.25, 4],
			"to": [12, 9.75, 13.5],
			"rotation": {"angle": 0, "axis": "y", "origin": [0, 10, 0]},
			"faces": {
				"north": {"uv": [0.25, 1.25, 0.375, 1.75], "texture": "#0"},
				"east": {"uv": [2.25, 1.75, 3.75, 2.25], "texture": "#0"},
				"south": {"uv": [0.25, 1.25, 0.5, 1.75], "texture": "#0"},
				"west": {"uv": [2.25, 1.5, 3.75, 3.5], "texture": "#0"},
				"up": {"uv": [2.5, 1.25, 3.5, 3.75], "texture": "#0"},
				"down": {"uv": [0.5, 1.25, 1.5, 3.75], "texture": "#0"}
			}
		},
		{
			"name": "surround",
			"from": [5.25, 9.5, 7],
			"to": [5.875, 10.25, 10.625],
			"rotation": {"angle": 0, "axis": "y", "origin": [7.5, 10, 8.35]},
			"faces": {
				"north": {"uv": [0, 0, 0.625, 0.75], "texture": "#0"},
				"east": {"uv": [1, 0, 2.875, 0.75], "texture": "#0"},
				"south": {"uv": [0, 0, 0.625, 0.75], "texture": "#0"},
				"west": {"uv": [0.5, 1.5, 1.625, 2.25], "texture": "#0"},
				"up": {"uv": [0.75, 1, 1.375, 3.875], "texture": "#0"},
				"down": {"uv": [0.75, 1, 1.375, 3.875], "texture": "#0"}
			}
		},
		{
			"name": "surround",
			"from": [5.5, 9.5, 10.5],
			"to": [6, 10.25, 12.3125],
			"rotation": {"angle": 0, "axis": "y", "origin": [7.5, 10, 8.35]},
			"faces": {
				"north": {"uv": [0, 0, 0.5, 0.75], "texture": "#0"},
				"east": {"uv": [1, 0, 2.875, 0.75], "texture": "#0"},
				"south": {"uv": [0, 0, 0.5, 0.75], "texture": "#0"},
				"west": {"uv": [0.5, 1.5, 1.625, 2.25], "texture": "#0"},
				"up": {"uv": [0.75, 1, 1.375, 3.875], "texture": "#0"},
				"down": {"uv": [0.75, 1, 1.375, 3.875], "texture": "#0"}
			}
		},
		{
			"name": "surround",
			"from": [5.5, 9.5, 5.25],
			"to": [6, 10.25, 7.0625],
			"rotation": {"angle": 0, "axis": "y", "origin": [7.5, 10, 8.35]},
			"faces": {
				"north": {"uv": [0, 0, 0.5, 0.75], "texture": "#0"},
				"east": {"uv": [1, 0, 2.875, 0.75], "texture": "#0"},
				"south": {"uv": [0, 0, 0.5, 0.75], "texture": "#0"},
				"west": {"uv": [0.5, 1.5, 1.625, 2.25], "texture": "#0"},
				"up": {"uv": [0.75, 1, 1.375, 3.875], "texture": "#0"},
				"down": {"uv": [0.75, 1, 1.375, 3.875], "texture": "#0"}
			}
		},
		{
			"name": "surround",
			"from": [5.6375, 9.5, 5],
			"to": [6.95, 10.25, 5.5],
			"rotation": {"angle": 0, "axis": "y", "origin": [7.5, 10, 8.35]},
			"faces": {
				"north": {"uv": [0, 0, 0.563, 0.75], "texture": "#0"},
				"east": {"uv": [0, 0, 0.5, 0.75], "texture": "#0"},
				"south": {"uv": [1.25, 0, 2.563, 0.75], "texture": "#0"},
				"west": {"uv": [0, 0, 0.5, 0.75], "texture": "#0"},
				"up": {"uv": [0.75, 1.75, 1.563, 2.25], "texture": "#0"},
				"down": {"uv": [0.5, 2, 1.563, 2.5], "texture": "#0"}
			}
		},
		{
			"name": "surround",
			"from": [6.8375, 9.5, 4.75],
			"to": [9.2125, 10.25, 5.25],
			"rotation": {"angle": 0, "axis": "y", "origin": [7.5, 10, 8.35]},
			"faces": {
				"north": {"uv": [0, 0, 0.563, 0.75], "texture": "#0"},
				"east": {"uv": [0, 0, 0.5, 0.75], "texture": "#0"},
				"south": {"uv": [1.25, 0, 2.563, 0.75], "texture": "#0"},
				"west": {"uv": [0, 0, 0.5, 0.75], "texture": "#0"},
				"up": {"uv": [0.75, 1.75, 1.563, 2.25], "texture": "#0"},
				"down": {"uv": [0.5, 2, 1.563, 2.5], "texture": "#0"}
			}
		},
		{
			"name": "surround",
			"from": [9.1, 9.5, 5],
			"to": [10.4125, 10.25, 5.5],
			"rotation": {"angle": 0, "axis": "y", "origin": [7.5, 10, 8.35]},
			"faces": {
				"north": {"uv": [0, 0, 0.563, 0.75], "texture": "#0"},
				"east": {"uv": [0, 0, 0.5, 0.75], "texture": "#0"},
				"south": {"uv": [1.25, 0, 2.563, 0.75], "texture": "#0"},
				"west": {"uv": [0, 0, 0.5, 0.75], "texture": "#0"},
				"up": {"uv": [0.75, 1.75, 1.563, 2.25], "texture": "#0"},
				"down": {"uv": [0.5, 2, 1.563, 2.5], "texture": "#0"}
			}
		},
		{
			"name": "surround",
			"from": [10, 9.5, 5.25],
			"to": [10.5, 10.25, 7.0625],
			"rotation": {"angle": 0, "axis": "y", "origin": [7.5, 10, 8.35]},
			"faces": {
				"north": {"uv": [0, 0, 0.5, 0.75], "texture": "#0"},
				"east": {"uv": [0.5, 1.25, 1.563, 2], "texture": "#0"},
				"south": {"uv": [0, 0, 0.5, 0.75], "texture": "#0"},
				"west": {"uv": [1, 0, 2.813, 0.75], "texture": "#0"},
				"up": {"uv": [0, 0, 0.5, 1.063], "texture": "#0"},
				"down": {"uv": [0, 0, 0.5, 1.063], "texture": "#0"}
			}
		},
		{
			"name": "surround",
			"from": [10, 9.5, 10.5],
			"to": [10.5, 10.25, 12.3125],
			"rotation": {"angle": 0, "axis": "y", "origin": [7.5, 10, 8.35]},
			"faces": {
				"north": {"uv": [0, 0, 0.5, 0.75], "texture": "#0"},
				"east": {"uv": [0.5, 1.25, 1.563, 2], "texture": "#0"},
				"south": {"uv": [0, 0, 0.5, 0.75], "texture": "#0"},
				"west": {"uv": [1, 0, 2.813, 0.75], "texture": "#0"},
				"up": {"uv": [0, 0, 0.5, 1.063], "texture": "#0"},
				"down": {"uv": [0, 0, 0.5, 1.063], "texture": "#0"}
			}
		},
		{
			"name": "surround",
			"from": [10.25, 9.5, 7],
			"to": [10.75, 10.25, 10.625],
			"rotation": {"angle": 0, "axis": "y", "origin": [7.5, 10, 8.35]},
			"faces": {
				"north": {"uv": [0, 0, 0.5, 0.75], "texture": "#0"},
				"east": {"uv": [0.5, 1.25, 1.563, 2], "texture": "#0"},
				"south": {"uv": [0, 0, 0.5, 0.75], "texture": "#0"},
				"west": {"uv": [1, 0, 2.813, 0.75], "texture": "#0"},
				"up": {"uv": [0, 0, 0.5, 1.063], "texture": "#0"},
				"down": {"uv": [0, 0, 0.5, 1.063], "texture": "#0"}
			}
		},
		{
			"name": "surround",
			"from": [5.6375, 9.5, 12],
			"to": [6.95, 10.25, 12.5],
			"rotation": {"angle": 0, "axis": "y", "origin": [7.5, 10, 8.35]},
			"faces": {
				"north": {"uv": [1, 0, 2.313, 0.75], "texture": "#0"},
				"east": {"uv": [0, 0, 0.5, 0.75], "texture": "#0"},
				"south": {"uv": [0, 0, 1.063, 0.75], "texture": "#0"},
				"west": {"uv": [0, 0, 0.5, 0.75], "texture": "#0"},
				"up": {"uv": [0, 0, 0.813, 0.5], "texture": "#0"},
				"down": {"uv": [0, 0, 0.813, 0.5], "texture": "#0"}
			}
		},
		{
			"name": "surround",
			"from": [6.8375, 9.5, 12.25],
			"to": [9.2125, 10.25, 12.75],
			"rotation": {"angle": 0, "axis": "y", "origin": [7.5, 10, 8.35]},
			"faces": {
				"north": {"uv": [1, 0, 2.313, 0.75], "texture": "#0"},
				"east": {"uv": [0, 0, 0.5, 0.75], "texture": "#0"},
				"south": {"uv": [0, 0, 1, 0.75], "texture": "#0"},
				"west": {"uv": [0, 0, 0.5, 0.75], "texture": "#0"},
				"up": {"uv": [0, 0, 0.813, 0.5], "texture": "#0"},
				"down": {"uv": [0, 0, 0.813, 0.5], "texture": "#0"}
			}
		},
		{
			"name": "surround",
			"from": [9, 9.5, 12],
			"to": [10.3125, 10.25, 12.5],
			"rotation": {"angle": 0, "axis": "y", "origin": [7.5, 10, 8.35]},
			"faces": {
				"north": {"uv": [1, 0, 2.313, 0.75], "texture": "#0"},
				"east": {"uv": [0, 0, 0.5, 0.75], "texture": "#0"},
				"south": {"uv": [0, 0, 1, 0.75], "texture": "#0"},
				"west": {"uv": [0, 0, 0.5, 0.75], "texture": "#0"},
				"up": {"uv": [0, 0, 0.813, 0.5], "texture": "#0"},
				"down": {"uv": [0, 0, 0.813, 0.5], "texture": "#0"}
			}
		},
		{
			"name": "column",
			"from": [5.75, 9.5, 8.5],
			"to": [10.25, 10.25, 9.25],
			"rotation": {"angle": 0, "axis": "y", "origin": [7.5, 10, 8.35]},
			"faces": {
				"north": {"uv": [1.25, 0, 3, 0.75], "texture": "#0"},
				"east": {"uv": [0, 0, 0.75, 0.75], "texture": "#0"},
				"south": {"uv": [1, 0, 3, 0.75], "texture": "#0"},
				"west": {"uv": [0, 0, 0.75, 0.75], "texture": "#0"},
				"up": {"uv": [0, 0, 1, 0.5], "texture": "#0"},
				"down": {"uv": [0, 0, 1, 0.5], "texture": "#0"}
			}
		},
		{
			"name": "backplate",
			"from": [5.75, 9.5, 5.25],
			"to": [10.25, 10.16, 12.25],
			"rotation": {"angle": 0, "axis": "y", "origin": [8, 9, 9]},
			"faces": {
				"north": {"uv": [1.5, 4.5, 2.5, 5.16], "texture": "#0"},
				"east": {"uv": [1.5, 4.5, 2.5, 5.16], "texture": "#0"},
				"south": {"uv": [1.5, 4.5, 2.5, 5.16], "texture": "#0"},
				"west": {"uv": [1.5, 4.5, 2.5, 5.16], "texture": "#0"},
				"up": {"uv": [1.5, 4.5, 2.5, 5.16], "texture": "#0"},
				"down": {"uv": [1.5, 4.5, 2.5, 5.16], "texture": "#0"}
			}
		},
		{
			"name": "grill",
			"from": [6.125, 9.25, 10.125],
			"to": [8.125, 10.17, 12.125],
			"rotation": {"angle": 0, "axis": "y", "origin": [8, 9, 9]},
			"faces": {
				"north": {"uv": [0, 0, 1, 0.92], "texture": "#0"},
				"east": {"uv": [0, 0, 1, 0.92], "texture": "#0"},
				"south": {"uv": [0, 0, 0.75, 0.92], "texture": "#0"},
				"west": {"uv": [0, 0, 1, 0.92], "texture": "#0"},
				"up": {"uv": [5.25, 5.5, 8, 8], "texture": "#0"},
				"down": {"uv": [0, 0, 1, 1.25], "texture": "#0"}
			}
		},
		{
			"name": "dpad",
			"from": [7.5, 9.45, 5.5],
			"to": [9, 10.2, 7],
			"rotation": {"angle": 0, "axis": "y", "origin": [8, 9, 9]},
			"faces": {
				"north": {"uv": [3.25, 0, 4.25, 0.95], "texture": "#0"},
				"east": {"uv": [3.25, 0, 4.25, 0.95], "texture": "#0"},
				"south": {"uv": [3.25, 0, 4.25, 0.95], "texture": "#0"},
				"west": {"uv": [3.25, 0, 4.25, 0.95], "texture": "#0"},
				"up": {"uv": [4.5, 0.25, 7.75, 3.5], "texture": "#0"},
				"down": {"uv": [3.25, 0, 4.25, 1], "texture": "#0"}
			}
		},
		{
			"name": "button",
			"from": [9.44454, 9.375, 8.57322],
			"to": [10.44454, 10.325, 8.94822],
			"rotation": {"angle": 45, "axis": "y", "origin": [8, 9, 9]},
			"faces": {
				"north": {"uv": [0, 5, 1, 5.95], "texture": "#0"},
				"east": {"uv": [0, 5, 0.375, 5.95], "texture": "#0"},
				"south": {"uv": [0, 5, 1, 5.95], "texture": "#0"},
				"west": {"uv": [0, 5, 0.375, 5.95], "texture": "#0"},
				"up": {"uv": [0, 5, 0.375, 6], "rotation": 90, "texture": "#0"},
				"down": {"uv": [0.25, 5, 0.625, 6], "rotation": 270, "texture": "#0"}
			}
		},
		{
			"name": "button",
			"from": [7.67678, 9.375, 10.34099],
			"to": [8.67678, 10.325, 10.71599],
			"rotation": {"angle": 45, "axis": "y", "origin": [8, 9, 9]},
			"faces": {
				"north": {"uv": [0, 5, 1, 5.95], "texture": "#0"},
				"east": {"uv": [0, 5, 0.375, 5.95], "texture": "#0"},
				"south": {"uv": [0, 5, 1, 5.95], "texture": "#0"},
				"west": {"uv": [0, 5, 0.375, 5.95], "texture": "#0"},
				"up": {"uv": [0, 5, 0.375, 6], "rotation": 90, "texture": "#0"},
				"down": {"uv": [0, 5, 0.375, 6], "rotation": 270, "texture": "#0"}
			}
		},
		{
			"name": "button",
			"from": [10.0481, 9.375, 9.03033],
			"to": [10.4231, 10.325, 10.03033],
			"rotation": {"angle": -45, "axis": "y", "origin": [8, 9, 9]},
			"faces": {
				"north": {"uv": [0, 5, 0.375, 5.95], "texture": "#0"},
				"east": {"uv": [0, 5, 1, 5.95], "texture": "#0"},
				"south": {"uv": [0, 5, 0.375, 5.95], "texture": "#0"},
				"west": {"uv": [0, 5, 1, 5.95], "texture": "#0"},
				"up": {"uv": [0, 5, 0.375, 6], "texture": "#0"},
				"down": {"uv": [0, 5, 0.375, 6], "texture": "#0"}
			}
		},
		{
			"name": "projector",
			"from": [5.90901, 8.30178, 7.25],
			"to": [6.90901, 9.25178, 8.25],
			"rotation": {"angle": -45, "axis": "z", "origin": [8, 9, 9]},
			"faces": {
				"north": {"uv": [2, 4.25, 2.25, 5.45], "texture": "#0"},
				"east": {"uv": [0, 5, 1, 5.95], "texture": "#0"},
				"south": {"uv": [1.25, 4.25, 1.5, 5.45], "texture": "#0"},
				"west": {"uv": [3.25, 4.25, 4.75, 5.45], "texture": "#0"},
				"up": {"uv": [1.25, 4.25, 2.75, 5.5], "texture": "#0"},
				"down": {"uv": [1.25, 4.25, 2.75, 5.5], "texture": "#0"}
			}
		},
		{
			"name": "led",
			"from": [6.125, 9.875, 8.63],
			"to": [6.625, 10.375, 9.13],
			"rotation": {"angle": 0, "axis": "y", "origin": [8, 9, 9]},
			"faces": {
				"north": {"uv": [5.25, 4.25, 5.5, 5.25], "rotation": 270, "texture": "#0"},
				"east": {"uv": [5.25, 4.25, 6.25, 4.5], "rotation": 90, "texture": "#0"},
				"south": {"uv": [5.25, 4.25, 5.5, 5.25], "rotation": 90, "texture": "#0"},
				"west": {"uv": [5.25, 4.25, 6.25, 4.5], "rotation": 90, "texture": "#0"},
				"up": {"uv": [5.25, 4.25, 6.25, 5.25], "rotation": 90, "texture": "#0"},
				"down": {"uv": [5.25, 4.25, 6.25, 5.25], "rotation": 90, "texture": "#0"}
			}
		},
		{
			"name": "engraving",
			"from": [8.25, 10.15, 5.25],
			"to": [8.35, 10.19, 12.25],
			"rotation": {"angle": 0, "axis": "y", "origin": [8, 9, 9]},
			"faces": {
				"north": {"uv": [0, 5, 0.1, 6], "texture": "#0"},
				"east": {"uv": [0, 5, 0.1, 6], "texture": "#0"},
				"south": {"uv": [0, 5, 0.1, 6], "texture": "#0"},
				"west": {"uv": [0, 5, 0.1, 6], "texture": "#0"},
				"up": {"uv": [0, 5, 0.1, 6], "texture": "#0"},
				"down": {"uv": [0, 5, 0.1, 6], "texture": "#0"}
			}
		},
		{
			"name": "engraving",
			"from": [6, 10.15, 6.25],
			"to": [10.25, 10.19, 6.35],
			"rotation": {"angle": 0, "axis": "y", "origin": [8, 9, 9]},
			"faces": {
				"north": {"uv": [0, 5, 0.1, 6], "texture": "#0"},
				"east": {"uv": [0, 5, 0.1, 6], "texture": "#0"},
				"south": {"uv": [0, 5, 0.1, 6], "texture": "#0"},
				"west": {"uv": [0, 5, 0.1, 6], "texture": "#0"},
				"up": {"uv": [0, 5, 0.1, 6], "texture": "#0"},
				"down": {"uv": [0, 5, 0.1, 6], "texture": "#0"}
			}
		},
		{
			"name": "engraving",
			"from": [5.75, 10.15, 9.875],
			"to": [8.25, 10.19, 9.975],
			"rotation": {"angle": 0, "axis": "y", "origin": [8, 9, 9]},
			"faces": {
				"north": {"uv": [0, 5, 0.1, 6], "texture": "#0"},
				"east": {"uv": [0, 5, 0.1, 6], "texture": "#0"},
				"south": {"uv": [0, 5, 0.1, 6], "texture": "#0"},
				"west": {"uv": [0, 5, 0.1, 6], "texture": "#0"},
				"up": {"uv": [0, 5, 0.1, 6], "texture": "#0"},
				"down": {"uv": [0, 5, 0.1, 6], "texture": "#0"}
			}
		},
		{
			"name": "engraving",
			"from": [6, 10.15, 9.675],
			"to": [7, 10.19, 9.775],
			"rotation": {"angle": 0, "axis": "y", "origin": [8, 9, 9]},
			"faces": {
				"north": {"uv": [0, 5, 0.1, 6], "texture": "#0"},
				"east": {"uv": [0, 5, 0.1, 6], "texture": "#0"},
				"south": {"uv": [0, 5, 0.1, 6], "texture": "#0"},
				"west": {"uv": [0, 5, 0.1, 6], "texture": "#0"},
				"up": {"uv": [0, 5, 0.1, 6], "texture": "#0"},
				"down": {"uv": [0, 5, 0.1, 6], "texture": "#0"}
			}
		},
		{
			"name": "engraving",
			"from": [6, 10.15, 9.475],
			"to": [6.66, 10.19, 9.575],
			"rotation": {"angle": 0, "axis": "y", "origin": [8, 9, 9]},
			"faces": {
				"north": {"uv": [0, 5, 0.1, 6], "texture": "#0"},
				"east": {"uv": [0, 5, 0.1, 6], "texture": "#0"},
				"south": {"uv": [0, 5, 0.1, 6], "texture": "#0"},
				"west": {"uv": [0, 5, 0.1, 6], "texture": "#0"},
				"up": {"uv": [0, 5, 0.1, 6], "texture": "#0"},
				"down": {"uv": [0, 5, 0.1, 6], "texture": "#0"}
			}
		},
		{
			"name": "stud",
			"from": [4.5, 9.5, 4.5],
			"to": [5.25, 10, 5.25],
			"rotation": {"angle": 0, "axis": "y", "origin": [0, 10, 0]},
			"faces": {
				"north": {"uv": [1.25, 6.25, 2.75, 6.75], "texture": "#0"},
				"east": {"uv": [1.25, 6.25, 2.75, 6.75], "texture": "#0"},
				"south": {"uv": [1.25, 6.25, 2.75, 6.75], "texture": "#0"},
				"west": {"uv": [1.25, 6.25, 2.75, 6.75], "texture": "#0"},
				"up": {"uv": [3.25, 6.25, 4.75, 7.75], "texture": "#0"},
				"down": {"uv": [6.75, 4.25, 7.5, 4.75], "texture": "#0"}
			}
		},
		{
			"name": "stud-tip",
			"from": [4.75, 10, 4.75],
			"to": [5, 10.25, 5],
			"rotation": {"angle": 0, "axis": "y", "origin": [0, 10, 0]},
			"faces": {
				"north": {"uv": [4, 7, 4.25, 7.25], "texture": "#0"},
				"east": {"uv": [4, 7, 4.25, 7.25], "texture": "#0"},
				"south": {"uv": [4, 7, 4.25, 7.25], "texture": "#0"},
				"west": {"uv": [4, 7, 4.25, 7.25], "texture": "#0"},
				"up": {"uv": [4, 7, 4.25, 7.25], "texture": "#0"},
				"down": {"uv": [4, 7, 4.25, 7.25], "texture": "#0"}
			}
		},
		{
			"name": "stud",
			"from": [4.5, 9.5, 12.33],
			"to": [5.25, 10, 13.08],
			"rotation": {"angle": 0, "axis": "y", "origin": [0, 10, 0]},
			"faces": {
				"north": {"uv": [3.25, 6.25, 4.75, 6.75], "texture": "#0"},
				"east": {"uv": [3.25, 6.25, 4.75, 6.75], "texture": "#0"},
				"south": {"uv": [3.25, 6.25, 4.75, 6.75], "texture": "#0"},
				"west": {"uv": [3.25, 6.25, 4.75, 6.75], "texture": "#0"},
				"up": {"uv": [3.25, 6.25, 4.75, 7.75], "texture": "#0"},
				"down": {"uv": [6.75, 4.25, 7.5, 5], "texture": "#0"}
			}
		},
		{
			"name": "stud-tip",
			"from": [4.75, 10, 12.575],
			"to": [5, 10.25, 12.825],
			"rotation": {"angle": 0, "axis": "y", "origin": [0, 10, 0]},
			"faces": {
				"north": {"uv": [4, 7, 4.25, 7.25], "texture": "#0"},
				"east": {"uv": [4, 7, 4.25, 7.25], "texture": "#0"},
				"south": {"uv": [4, 7, 4.25, 7.25], "texture": "#0"},
				"west": {"uv": [4, 7, 4.25, 7.25], "texture": "#0"},
				"up": {"uv": [4, 7, 4.25, 7.25], "texture": "#0"},
				"down": {"uv": [4, 7, 4.25, 7.25], "texture": "#0"}
			}
		},
		{
			"name": "stud",
			"from": [10.75, 9.5, 4.5],
			"to": [11.5, 10, 5.25],
			"rotation": {"angle": 0, "axis": "y", "origin": [0, 10, 0]},
			"faces": {
				"north": {"uv": [1.25, 6.25, 2.75, 6.75], "texture": "#0"},
				"east": {"uv": [1.25, 6.25, 2.75, 6.75], "texture": "#0"},
				"south": {"uv": [1.25, 6.25, 2.75, 7], "texture": "#0"},
				"west": {"uv": [1.25, 6.25, 2.75, 6.75], "texture": "#0"},
				"up": {"uv": [3.25, 6.25, 4.75, 7.75], "texture": "#0"},
				"down": {"uv": [6.75, 4.25, 7.5, 5], "texture": "#0"}
			}
		},
		{
			"name": "stud-tip",
			"from": [11, 10, 4.75],
			"to": [11.25, 10.25, 5],
			"rotation": {"angle": 0, "axis": "y", "origin": [0, 10, 0]},
			"faces": {
				"north": {"uv": [4, 7, 4.25, 7.25], "texture": "#0"},
				"east": {"uv": [4, 7, 4.25, 7.25], "texture": "#0"},
				"south": {"uv": [4, 7, 4.25, 7.25], "texture": "#0"},
				"west": {"uv": [4, 7, 4.25, 7.25], "texture": "#0"},
				"up": {"uv": [4, 7, 4.25, 7.25], "texture": "#0"},
				"down": {"uv": [4, 7, 4.25, 7.25], "texture": "#0"}
			}
		},
		{
			"name": "stud",
			"from": [10.75, 9.5, 12.33],
			"to": [11.5, 10, 13.08],
			"rotation": {"angle": 0, "axis": "y", "origin": [0, 10, 0]},
			"faces": {
				"north": {"uv": [3.25, 6.25, 4.75, 6.75], "texture": "#0"},
				"east": {"uv": [3.25, 6.25, 4.75, 6.75], "texture": "#0"},
				"south": {"uv": [3.25, 6.25, 4.75, 6.75], "texture": "#0"},
				"west": {"uv": [3.25, 6.25, 4.75, 6.75], "texture": "#0"},
				"up": {"uv": [3.25, 6.25, 4.75, 7.75], "texture": "#0"},
				"down": {"uv": [6.75, 4.25, 7.5, 5], "texture": "#0"}
			}
		},
		{
			"name": "stud-tip",
			"from": [11, 10, 12.575],
			"to": [11.25, 10.25, 12.825],
			"rotation": {"angle": 0, "axis": "y", "origin": [0, 10, 0]},
			"faces": {
				"north": {"uv": [4, 7, 4.25, 7.25], "texture": "#0"},
				"east": {"uv": [4, 7, 4.25, 7.25], "texture": "#0"},
				"south": {"uv": [4, 7, 4.25, 7.25], "texture": "#0"},
				"west": {"uv": [4, 7, 4.25, 7.25], "texture": "#0"},
				"up": {"uv": [4, 7, 4.25, 7.25], "texture": "#0"},
				"down": {"uv": [4, 7, 4.25, 7.25], "texture": "#0"}
			}
		},
		{
			"from": [3.5, 2.25, 4],
			"to": [4, 9.25, 13.5],
			"rotation": {"angle": 0, "axis": "y", "origin": [3, 10, 9]},
			"faces": {
				"north": {"uv": [0.25, 1.25, 0.375, 3.75], "texture": "#0"},
				"east": {"uv": [0.5, 1.25, 1.75, 3.75], "texture": "#0"},
				"south": {"uv": [0.25, 1.25, 0.5, 3.75], "texture": "#0"},
				"west": {"uv": [2.375, 1.5, 3.625, 3.25], "texture": "#0"},
				"up": {"uv": [2.75, 1.25, 3.25, 3.75], "texture": "#0"},
				"down": {"uv": [2.75, 1.25, 3.25, 3.75], "texture": "#0"}
			}
		},
		{
			"from": [12, 2.25, 4],
			"to": [12.5, 9.25, 13.5],
			"rotation": {"angle": 0, "axis": "y", "origin": [0, 10, 0]},
			"faces": {
				"north": {"uv": [0.25, 1.25, 0.375, 3.75], "texture": "#0"},
				"east": {"uv": [2.375, 1.75, 3.625, 3.25], "texture": "#0"},
				"south": {"uv": [0.25, 1.25, 0.5, 3.75], "texture": "#0"},
				"west": {"uv": [0.5, 1.5, 1.75, 3.75], "texture": "#0"},
				"up": {"uv": [2.75, 1.25, 3.25, 3.75], "texture": "#0"},
				"down": {"uv": [2.75, 1.25, 3.25, 3.75], "texture": "#0"}
			}
		},
		{
			"from": [3, 1.25, 7.75],
			"to": [3.5, 9.25, 9.75],
			"rotation": {"angle": 0, "axis": "y", "origin": [3.5, 7, 9]},
			"faces": {
				"north": {"uv": [0.25, 1.25, 0.5, 2.25], "texture": "#0"},
				"east": {"uv": [0.5, 1.25, 1.75, 3.75], "texture": "#0"},
				"south": {"uv": [0.25, 1.25, 0.5, 2.25], "texture": "#0"},
				"west": {"uv": [0.5, 1.25, 1.75, 3.75], "texture": "#0"},
				"up": {"uv": [0.5, 0.25, 1, 2.25], "texture": "#0"},
				"down": {"uv": [0.5, 0, 1, 2], "texture": "#0"}
			}
		},
		{
			"from": [8.5, 0.734, 7.75],
			"to": [13, 1.234, 9.75],
			"rotation": {"angle": 0, "axis": "y", "origin": [3.5, 7, 9]},
			"faces": {
				"north": {"uv": [0.25, 1.25, 0.5, 1.75], "texture": "#0"},
				"east": {"uv": [0.5, 1.75, 1.75, 2.25], "texture": "#0"},
				"south": {"uv": [0.25, 1.5, 0.5, 2], "texture": "#0"},
				"west": {"uv": [1, 0, 3, 0.5], "texture": "#0"},
				"up": {"uv": [0.5, 1, 1.75, 3], "texture": "#0"},
				"down": {"uv": [0.5, 1, 1.75, 2.25], "texture": "#0"}
			}
		},
		{
			"from": [12.5, 1.25, 7.75],
			"to": [13, 9.25, 9.75],
			"rotation": {"angle": 0, "axis": "y", "origin": [3.5, 7, 9]},
			"faces": {
				"north": {"uv": [0.25, 1.25, 0.5, 3.75], "texture": "#0"},
				"east": {"uv": [0.5, 1.5, 1.75, 3.25], "texture": "#0"},
				"south": {"uv": [0.25, 1.25, 0.5, 3.75], "texture": "#0"},
				"west": {"uv": [0.5, 1.25, 1.75, 3.75], "texture": "#0"},
				"up": {"uv": [0, 0, 0.5, 2], "texture": "#0"},
				"down": {"uv": [0, 0, 0.5, 2], "texture": "#0"}
			}
		},
		{
			"from": [11.5, 9.25, 7.75],
			"to": [13, 9.75, 9.75],
			"rotation": {"angle": 0, "axis": "y", "origin": [3.5, 7, 9]},
			"faces": {
				"north": {"uv": [0.25, 1.5, 0.5, 2], "texture": "#0"},
				"east": {"uv": [0, 0, 1, 0.5], "texture": "#0"},
				"south": {"uv": [0.25, 1.25, 0.5, 1.75], "texture": "#0"},
				"west": {"uv": [0, 0, 1, 0.5], "texture": "#0"},
				"up": {"uv": [0.5, 1.25, 1.75, 3.25], "texture": "#0"},
				"down": {"uv": [0.5, 1.25, 1.75, 3.25], "texture": "#0"}
			}
		},
		{
			"from": [3, 9.25, 7.75],
			"to": [4.5, 9.75, 9.75],
			"rotation": {"angle": 0, "axis": "y", "origin": [3.5, 7, 9]},
			"faces": {
				"north": {"uv": [0.25, 1.25, 0.5, 1.75], "texture": "#0"},
				"east": {"uv": [0, 0, 0.75, 0.5], "texture": "#0"},
				"south": {"uv": [0.25, 1.25, 0.5, 1.75], "texture": "#0"},
				"west": {"uv": [0, 0, 1, 0.5], "texture": "#0"},
				"up": {"uv": [0.5, 1.25, 1.75, 3.25], "texture": "#0"},
				"down": {"uv": [0.5, 1.5, 1.75, 3.5], "texture": "#0"}
			}
		},
		{
			"from": [9.96475, 0, 8.12015],
			"to": [10.96475, 0.5, 9.49515],
			"rotation": {"angle": -45, "axis": "y", "origin": [10.32475, -0.5, 8.82015]},
			"faces": {
				"north": {"uv": [0, 0, 1, 0.5], "rotation": 180, "texture": "#0"},
				"east": {"uv": [0.25, 1.75, 0.5, 2.25], "rotation": 180, "texture": "#0"},
				"south": {"uv": [0, 0, 1, 0.5], "rotation": 180, "texture": "#0"},
				"west": {"uv": [0, 0, 0.875, 0.5], "rotation": 180, "texture": "#0"},
				"up": {"uv": [0, 0, 1, 1.125], "rotation": 180, "texture": "#0"},
				"down": {"uv": [0, 0, 1, 1.125], "rotation": 180, "texture": "#0"}
			}
		},
		{
			"from": [10.23355, 0, 7.99645],
			"to": [11.23355, 0.5, 9.37145],
			"rotation": {"angle": 45, "axis": "y", "origin": [10.5, -0.5, 9]},
			"faces": {
				"north": {"uv": [0, 0, 1, 0.5], "rotation": 180, "texture": "#0"},
				"east": {"uv": [0.25, 1.25, 0.5, 1.75], "rotation": 180, "texture": "#0"},
				"south": {"uv": [0, 0, 1, 0.5], "rotation": 180, "texture": "#0"},
				"west": {"uv": [0, 0, 0.875, 0.5], "rotation": 180, "texture": "#0"},
				"up": {"uv": [0, 0, 1, 1.125], "texture": "#0"},
				"down": {"uv": [0, 0, 1, 1.125], "texture": "#0"}
			}
		},
		{
			"from": [8.05, 0, 7.75],
			"to": [10.3, 0.5, 9.75],
			"rotation": {"angle": 0, "axis": "y", "origin": [3.5, 6, 9]},
			"faces": {
				"north": {"uv": [0.25, 1.25, 0.5, 1.75], "texture": "#0"},
				"east": {"uv": [0, 0, 1, 0.5], "texture": "#0"},
				"south": {"uv": [0.25, 1.5, 0.5, 2], "texture": "#0"},
				"west": {"uv": [0, 0, 1, 0.5], "texture": "#0"},
				"up": {"uv": [0.5, 1.5, 1.75, 3.5], "texture": "#0"},
				"down": {"uv": [0.5, 1.5, 1.75, 3.5], "texture": "#0"}
			}
		},
		{
			"from": [3.01967, 0.73744, 7.75],
			"to": [7.51967, 1.23744, 9.75],
			"rotation": {"angle": 0, "axis": "y", "origin": [5.51967, 1, 9]},
			"faces": {
				"north": {"uv": [0.25, 1.25, 0.5, 1.75], "texture": "#0"},
				"east": {"uv": [1, 0, 3, 0.5], "texture": "#0"},
				"south": {"uv": [0.25, 1.25, 0.5, 1.75], "texture": "#0"},
				"west": {"uv": [0, 0, 1, 0.5], "texture": "#0"},
				"up": {"uv": [0.5, 1.5, 1.75, 3], "texture": "#0"},
				"down": {"uv": [0.5, 1.25, 1.75, 3.25], "texture": "#0"}
			}
		},
		{
			"name": "angled_cube",
			"from": [6.99846, 0.53912, 7.75],
			"to": [8.24846, 1.03912, 9.75],
			"rotation": {"angle": -45, "axis": "z", "origin": [7.49846, 0.50912, 8.75]},
			"faces": {
				"north": {"uv": [0.25, 1.25, 0.5, 1.75], "texture": "#0"},
				"east": {"uv": [0, 0, 1, 0.5], "texture": "#0"},
				"south": {"uv": [0.25, 1.5, 0.5, 2], "texture": "#0"},
				"west": {"uv": [0, 0, 0.75, 0.5], "texture": "#0"},
				"up": {"uv": [0, 0, 1, 1.25], "texture": "#0"},
				"down": {"uv": [0, 0, 1, 1.25], "texture": "#0"}
			}
		},
		{
			"from": [7, 0.85, 7.5],
			"to": [7.25, 1.1, 10],
			"rotation": {"angle": 0, "axis": "y", "origin": [0, 10, 0]},
			"faces": {
				"north": {"uv": [9.5, 2.5, 11.25, 2.75], "texture": "#0"},
				"east": {"uv": [9.75, 2.75, 11, 3], "texture": "#0"},
				"south": {"uv": [9.5, 2.5, 11.25, 2.75], "texture": "#0"},
				"west": {"uv": [9.5, 2.5, 11.25, 2.75], "texture": "#0"},
				"up": {"uv": [9.5, 2.5, 11.25, 2.75], "texture": "#0"},
				"down": {"uv": [9.5, 2.5, 11.25, 2.75], "texture": "#0"}
			}
		},
		{
			"from": [7, 0.85, 7.5],
			"to": [9.25, 1.1, 7.75],
			"rotation": {"angle": 0, "axis": "y", "origin": [0, 10, 0]},
			"faces": {
				"north": {"uv": [9.5, 2.5, 11.25, 2.75], "texture": "#0"},
				"east": {"uv": [9.5, 2.5, 11.25, 2.75], "texture": "#0"},
				"south": {"uv": [9.75, 2.75, 11, 3], "texture": "#0"},
				"west": {"uv": [9.5, 2.5, 11.25, 2.75], "texture": "#0"},
				"up": {"uv": [9.75, 2.5, 11, 2.75], "texture": "#0"},
				"down": {"uv": [9.5, 2.5, 11.25, 2.75], "texture": "#0"}
			}
		},
		{
			"from": [7, 0.85, 9.75],
			"to": [9.25, 1.1, 10],
			"rotation": {"angle": 0, "axis": "y", "origin": [0, 10, 0]},
			"faces": {
				"north": {"uv": [9.75, 2.75, 11, 3], "texture": "#0"},
				"east": {"uv": [9.5, 2.5, 11.25, 2.75], "texture": "#0"},
				"south": {"uv": [9.5, 2.5, 11.25, 2.75], "texture": "#0"},
				"west": {"uv": [9.75, 2.75, 11, 3], "texture": "#0"},
				"up": {"uv": [9.5, 2.5, 11.25, 2.75], "texture": "#0"},
				"down": {"uv": [9.5, 2.5, 11.25, 2.75], "texture": "#0"}
			}
		},
		{
			"from": [6.75, 0.6, 8.75],
			"to": [8, 0.85, 9],
			"rotation": {"angle": 0, "axis": "y", "origin": [0, 10, 0]},
			"faces": {
				"north": {"uv": [9.5, 0, 10.75, 0.25], "texture": "#0"},
				"east": {"uv": [9, 1, 9.25, 1.25], "texture": "#0"},
				"south": {"uv": [9.5, 0, 10.75, 0.25], "texture": "#0"},
				"west": {"uv": [9, 0.75, 9.25, 1], "texture": "#0"},
				"up": {"uv": [9.5, 0.5, 10.75, 0.75], "texture": "#0"},
				"down": {"uv": [9.5, 0.5, 10.75, 0.75], "texture": "#0"}
			}
		},
		{
			"from": [8, 0.85, 8.75],
			"to": [8.5, 1.1, 9],
			"rotation": {"angle": 0, "axis": "y", "origin": [0, 10, 0]},
			"faces": {
				"north": {"uv": [10.25, 0.75, 10.75, 1], "texture": "#0"},
				"east": {"uv": [10.25, 0.75, 10.75, 1], "texture": "#0"},
				"south": {"uv": [10.25, 0.75, 10.75, 1], "texture": "#0"},
				"west": {"uv": [10.25, 0.75, 10.75, 1], "texture": "#0"},
				"up": {"uv": [10.25, 0.75, 10.75, 1], "texture": "#0"},
				"down": {"uv": [10.25, 0.75, 10.75, 1], "texture": "#0"}
			}
		},
		{
			"name": "side3",
			"from": [11.25, 10, 12.375],
			"to": [12, 10.5, 13.5],
			"rotation": {"angle": -22.5, "axis": "z", "origin": [11.5, 10.25, 9]},
			"faces": {
				"north": {"uv": [1, 0, 1.5, 0.5], "rotation": 90, "texture": "#0"},
				"east": {"uv": [0, 0, 0.5, 1.125], "rotation": 270, "texture": "#0"},
				"south": {"uv": [2.25, 0, 2.75, 0.5], "rotation": 270, "texture": "#0"},
				"west": {"uv": [0, 0, 0.5, 1.25], "rotation": 270, "texture": "#0"},
				"up": {"uv": [2.25, 0, 2.875, 0.5], "rotation": 270, "texture": "#0"},
				"down": {"uv": [1, 0, 2.125, 0.5], "rotation": 270, "texture": "#0"}
			}
		},
		{
			"name": "side1",
			"from": [11.25, 10, 4],
			"to": [12, 10.5, 5.25],
			"rotation": {"angle": -22.5, "axis": "z", "origin": [11.5, 10.25, 9]},
			"faces": {
				"north": {"uv": [0.25, 1.25, 0.5, 1.75], "rotation": 90, "texture": "#0"},
				"east": {"uv": [0, 0, 0.5, 1.25], "rotation": 270, "texture": "#0"},
				"south": {"uv": [0, 0, 0.5, 0.5], "rotation": 270, "texture": "#0"},
				"west": {"uv": [0, 0, 0.5, 1.25], "rotation": 270, "texture": "#0"},
				"up": {"uv": [0.25, 1.5, 0.375, 2], "rotation": 270, "texture": "#0"},
				"down": {"uv": [0, 0, 1.25, 0.5], "rotation": 270, "texture": "#0"}
			}
		},
		{
			"name": "main",
			"from": [11.25, 10, 5.25],
			"to": [12, 10.5, 12.375],
			"rotation": {"angle": -22.5, "axis": "z", "origin": [11.5, 10.25, 9]},
			"faces": {
				"north": {"uv": [1, 0, 2.5, 0.5], "texture": "#0"},
				"east": {"uv": [2.25, 0, 3, 0.5], "texture": "#0"},
				"south": {"uv": [1, 0, 2.5, 0.5], "texture": "#0"},
				"west": {"uv": [1, 0, 2, 0.5], "texture": "#0"},
				"up": {"uv": [0.5, 1.25, 1.75, 4], "texture": "#0"},
				"down": {"uv": [0.5, 1, 1.75, 4], "texture": "#0"}
			}
		},
		{
			"name": "socket",
			"from": [10.625, 10.25, 12.185],
			"to": [11.625, 10.75, 13.185],
			"rotation": {"angle": -22.5, "axis": "z", "origin": [11.5, 10.3, 9]},
			"faces": {
				"north": {"uv": [0.125, 8, 0.875, 9], "texture": "#0"},
				"east": {"uv": [0, 8, 1, 9], "texture": "#0"},
				"south": {"uv": [0, 8, 1, 8.75], "texture": "#0"},
				"west": {"uv": [0.125, 8, 0.875, 9], "texture": "#0"},
				"up": {"uv": [1.25, 6.25, 2.75, 7.75], "texture": "#0"},
				"down": {"uv": [1.25, 6.25, 2.75, 7.75], "texture": "#0"}
			}
		},
		{
			"name": "socket",
			"from": [10.625, 10.25, 4.375],
			"to": [11.625, 10.75, 5.375],
			"rotation": {"angle": -22.5, "axis": "z", "origin": [11.5, 10.3, 9]},
			"faces": {
				"north": {"uv": [0.125, 8, 0.875, 9], "texture": "#0"},
				"east": {"uv": [0, 8, 1, 9], "texture": "#0"},
				"south": {"uv": [0, 8, 1, 8.75], "texture": "#0"},
				"west": {"uv": [0.125, 8, 0.875, 9], "texture": "#0"},
				"up": {"uv": [1.25, 6.25, 2.75, 7.75], "texture": "#0"},
				"down": {"uv": [1.25, 6.25, 2.75, 7.75], "texture": "#0"}
			}
		},
		{
			"name": "side4",
			"from": [10.75, 10, 13],
			"to": [11.5, 10.5, 13.5],
			"rotation": {"angle": -45, "axis": "z", "origin": [11.5, 10.3, 9]},
			"faces": {
				"north": {"uv": [1, 0, 1.75, 0.5], "texture": "#0"},
				"east": {"uv": [1, 0, 1.5, 0.5], "texture": "#0"},
				"south": {"uv": [2.25, 0, 3, 0.5], "texture": "#0"},
				"west": {"uv": [1, 0, 1.5, 0.5], "texture": "#0"},
				"up": {"uv": [0, 0, 0.5, 1.25], "texture": "#0"},
				"down": {"uv": [0, 0, 0.75, 0.5], "texture": "#0"}
			}
		},
		{
			"name": "side2",
			"from": [10.75, 10, 4],
			"to": [11.5, 10.5, 4.5],
			"rotation": {"angle": -45, "axis": "z", "origin": [11.5, 10.3, 9]},
			"faces": {
				"north": {"uv": [0.25, 1.5, 0.5, 2], "rotation": 180, "texture": "#0"},
				"east": {"uv": [1, 0, 1.5, 0.5], "rotation": 180, "texture": "#0"},
				"south": {"uv": [1, 0, 1.5, 0.5], "rotation": 180, "texture": "#0"},
				"west": {"uv": [0, 0, 0.5, 0.5], "rotation": 180, "texture": "#0"},
				"up": {"uv": [0, 0, 0.75, 0.5], "rotation": 180, "texture": "#0"},
				"down": {"uv": [0, 0, 0.5, 1.25], "rotation": 180, "texture": "#0"}
			}
		},
		{
			"name": "main",
			"from": [10.5, 10, 5.25],
			"to": [11.5, 10.5, 12.375],
			"rotation": {"angle": -45, "axis": "z", "origin": [11.5, 10.3, 9]},
			"faces": {
				"north": {"uv": [1, 0, 2.5, 0.5], "texture": "#0"},
				"east": {"uv": [2.25, 0, 3, 0.5], "texture": "#0"},
				"south": {"uv": [1, 0, 2.5, 0.5], "texture": "#0"},
				"west": {"uv": [1, 0, 2, 0.5], "texture": "#0"},
				"up": {"uv": [0.5, 1.25, 1.75, 4], "texture": "#0"},
				"down": {"uv": [0.5, 1, 1.75, 4], "texture": "#0"}
			}
		},
		{
			"name": "side7",
			"from": [4.5, 10, 4],
			"to": [5.25, 10.5, 4.5],
			"rotation": {"angle": -45, "axis": "z", "origin": [11.5, 10.25, 9]},
			"faces": {
				"north": {"uv": [0.25, 1.5, 0.5, 2], "texture": "#0"},
				"east": {"uv": [1.5, 0, 2, 0.5], "texture": "#0"},
				"south": {"uv": [1, 0, 1.5, 0.5], "texture": "#0"},
				"west": {"uv": [1.25, 0, 1.75, 0.5], "texture": "#0"},
				"up": {"uv": [0, 0, 0.5, 1.25], "texture": "#0"},
				"down": {"uv": [0, 0, 0.75, 0.5], "texture": "#0"}
			}
		},
		{
			"name": "side8",
			"from": [4, 10, 4],
			"to": [4.5, 10.5, 5.25],
			"rotation": {"angle": -45, "axis": "z", "origin": [11.5, 10.25, 9]},
			"faces": {
				"north": {"uv": [0.25, 1.5, 0.5, 2], "texture": "#0"},
				"east": {"uv": [1, 0, 2.25, 0.5], "texture": "#0"},
				"south": {"uv": [1, 0, 1.5, 0.5], "texture": "#0"},
				"west": {"uv": [0.25, 1.5, 0.375, 2], "texture": "#0"},
				"up": {"uv": [0, 0, 0.5, 1.25], "texture": "#0"},
				"down": {"uv": [0, 0, 0.5, 1.25], "texture": "#0"}
			}
		},
		{
			"name": "main",
			"from": [4, 10, 5.25],
			"to": [5.5, 10.5, 12.375],
			"rotation": {"angle": -45, "axis": "z", "origin": [11.5, 10.25, 9]},
			"faces": {
				"north": {"uv": [1, 0, 2.5, 0.5], "texture": "#0"},
				"east": {"uv": [1, 0, 2.25, 0.5], "texture": "#0"},
				"south": {"uv": [0.25, 1.5, 0.375, 2], "texture": "#0"},
				"west": {"uv": [2.25, 0, 2.625, 0.5], "texture": "#0"},
				"up": {"uv": [0.5, 1.25, 1.75, 4], "texture": "#0"},
				"down": {"uv": [0.5, 1, 1.75, 4], "texture": "#0"}
			}
		},
		{
			"name": "socket",
			"from": [4.375, 10.25, 12.185],
			"to": [5.375, 10.75, 13.185],
			"rotation": {"angle": -45, "axis": "z", "origin": [11.5, 10.25, 9]},
			"faces": {
				"north": {"uv": [0.125, 8, 0.875, 9], "texture": "#0"},
				"east": {"uv": [0, 8, 1, 9], "texture": "#0"},
				"south": {"uv": [0, 8, 1, 8.75], "texture": "#0"},
				"west": {"uv": [0.125, 8, 0.875, 9], "texture": "#0"},
				"up": {"uv": [1.25, 6.25, 2.75, 7.75], "texture": "#0"},
				"down": {"uv": [1.25, 6.25, 2.75, 7.75], "texture": "#0"}
			}
		},
		{
			"name": "side5",
			"from": [4, 10, 12.375],
			"to": [4.5, 10.5, 13.5],
			"rotation": {"angle": -45, "axis": "z", "origin": [11.5, 10.25, 9]},
			"faces": {
				"north": {"uv": [1, 0, 1.5, 0.5], "texture": "#0"},
				"east": {"uv": [1, 0, 2.125, 0.5], "texture": "#0"},
				"south": {"uv": [0.25, 1.25, 0.375, 1.75], "texture": "#0"},
				"west": {"uv": [2.25, 0, 2.875, 0.5], "texture": "#0"},
				"up": {"uv": [0, 0, 0.5, 1.25], "texture": "#0"},
				"down": {"uv": [0, 0, 0.5, 1.125], "texture": "#0"}
			}
		},
		{
			"name": "main",
			"from": [5.25, 10, 12.25],
			"to": [10.75, 10.5, 13.5],
			"rotation": {"angle": -45, "axis": "z", "origin": [11.5, 10.25, 9]},
			"faces": {
				"north": {"uv": [1, 0, 2, 0.5], "texture": "#0"},
				"east": {"uv": [1, 0, 2.5, 0.5], "texture": "#0"},
				"south": {"uv": [2.25, 0, 3, 0.5], "texture": "#0"},
				"west": {"uv": [1, 0, 2.5, 0.5], "texture": "#0"},
				"up": {"uv": [0.5, 1.5, 1.5, 3], "texture": "#0"},
				"down": {"uv": [0.5, 1.25, 1.5, 2.75], "texture": "#0"}
			}
		},
		{
			"name": "side6",
			"from": [4.5, 10, 13],
			"to": [5.25, 10.5, 13.5],
			"rotation": {"angle": -45, "axis": "z", "origin": [11.5, 10.25, 9]},
			"faces": {
				"north": {"uv": [1, 0, 1.75, 0.5], "texture": "#0"},
				"east": {"uv": [1, 0, 1.5, 0.5], "texture": "#0"},
				"south": {"uv": [2.25, 0, 2.99, 0.5], "texture": "#0"},
				"west": {"uv": [1, 0, 1.5, 0.5], "texture": "#0"},
				"up": {"uv": [0, 0, 0.5, 1.25], "texture": "#0"},
				"down": {"uv": [0, 0, 0.75, 0.5], "texture": "#0"}
			}
		},
		{
			"name": "main",
			"from": [5.25, 10, 4],
			"to": [10.75, 10.5, 5.25],
			"rotation": {"angle": -45, "axis": "z", "origin": [11.5, 10.25, 9]},
			"faces": {
				"north": {"uv": [0.25, 1.25, 0.375, 1.75], "texture": "#0"},
				"east": {"uv": [1, 0, 2.5, 0.5], "texture": "#0"},
				"south": {"uv": [1, 0, 2.25, 0.5], "texture": "#0"},
				"west": {"uv": [0.25, 1.5, 0.5, 2], "texture": "#0"},
				"up": {"uv": [0.5, 1.5, 1.75, 3], "texture": "#0"},
				"down": {"uv": [0.5, 1.25, 1.5, 2.75], "texture": "#0"}
			}
		},
		{
			"name": "socket",
			"from": [4.375, 10.25, 4.375],
			"to": [5.375, 10.75, 5.375],
			"rotation": {"angle": -45, "axis": "z", "origin": [11.5, 10.25, 9]},
			"faces": {
				"north": {"uv": [0.125, 8, 0.875, 9], "texture": "#0"},
				"east": {"uv": [0, 8, 1, 9], "texture": "#0"},
				"south": {"uv": [0, 8, 1, 8.75], "texture": "#0"},
				"west": {"uv": [0.125, 8, 0.875, 9], "texture": "#0"},
				"up": {"uv": [1.25, 6.25, 2.75, 7.75], "texture": "#0"},
				"down": {"uv": [1.25, 6.25, 2.75, 7.75], "texture": "#0"}
			}
		},
		{
			"name": "surround",
			"from": [5.125, 10.25, 7],
			"to": [5.875, 11, 10.625],
			"rotation": {"angle": -45, "axis": "z", "origin": [11.5, 10.25, 9]},
			"faces": {
				"north": {"uv": [0, 0, 0.75, 0.75], "texture": "#0"},
				"east": {"uv": [1, 0, 2, 0.75], "texture": "#0"},
				"south": {"uv": [0, 0, 0.75, 0.75], "texture": "#0"},
				"west": {"uv": [0, 0, 0.875, 0.5], "texture": "#0"},
				"up": {"uv": [0, 0, 0.75, 1.125], "texture": "#0"},
				"down": {"uv": [0, 0, 0.75, 1.125], "texture": "#0"}
			}
		},
		{
			"name": "surround",
			"from": [5.375, 10.25, 10.5],
			"to": [6, 11, 12.3125],
			"rotation": {"angle": -45, "axis": "z", "origin": [11.5, 10.25, 9]},
			"faces": {
				"north": {"uv": [0, 0, 0.625, 0.75], "texture": "#0"},
				"east": {"uv": [1, 0, 2, 0.75], "texture": "#0"},
				"south": {"uv": [0, 0, 0.625, 0.75], "texture": "#0"},
				"west": {"uv": [0, 0, 0.875, 0.5], "texture": "#0"},
				"up": {"uv": [0, 0, 0.75, 1.125], "texture": "#0"},
				"down": {"uv": [0, 0, 0.75, 1.125], "texture": "#0"}
			}
		},
		{
			"name": "surround",
			"from": [5.375, 10.25, 5.25],
			"to": [6, 11, 7.0625],
			"rotation": {"angle": -45, "axis": "z", "origin": [11.5, 10.25, 9]},
			"faces": {
				"north": {"uv": [0, 0, 0.625, 0.75], "texture": "#0"},
				"east": {"uv": [1, 0, 2.25, 0.75], "texture": "#0"},
				"south": {"uv": [0, 0, 0.625, 0.75], "texture": "#0"},
				"west": {"uv": [0, 0, 0.875, 0.5], "texture": "#0"},
				"up": {"uv": [0, 0, 0.75, 1.125], "texture": "#0"},
				"down": {"uv": [0, 0, 0.75, 1.125], "texture": "#0"}
			}
		},
		{
			"name": "surround",
			"from": [5.5125, 10.25, 4.875],
			"to": [6.9875, 11, 5.5],
			"rotation": {"angle": -45, "axis": "z", "origin": [11.5, 10.25, 9]},
			"faces": {
				"north": {"uv": [0, 0, 0.975, 0.75], "texture": "#0"},
				"east": {"uv": [0, 0, 0.625, 0.75], "texture": "#0"},
				"south": {"uv": [1, 0, 2.225, 0.75], "texture": "#0"},
				"west": {"uv": [0, 0, 0.625, 0.75], "texture": "#0"},
				"up": {"uv": [0, 0, 0.75, 1.125], "texture": "#0"},
				"down": {"uv": [0, 0, 0.75, 1.125], "texture": "#0"}
			}
		},
		{
			"name": "surround",
			"from": [6.8375, 10.25, 4.625],
			"to": [9.2125, 11, 5.25],
			"rotation": {"angle": -45, "axis": "z", "origin": [11.5, 10.25, 9]},
			"faces": {
				"north": {"uv": [0, 0, 0.975, 0.75], "texture": "#0"},
				"east": {"uv": [0, 0, 0.625, 0.75], "texture": "#0"},
				"south": {"uv": [1, 0, 2, 0.75], "texture": "#0"},
				"west": {"uv": [0, 0, 0.625, 0.75], "texture": "#0"},
				"up": {"uv": [0, 0, 0.75, 1.125], "texture": "#0"},
				"down": {"uv": [0, 0, 0.75, 1.125], "texture": "#0"}
			}
		},
		{
			"name": "surround",
			"from": [9.1, 10.25, 4.875],
			"to": [10.5375, 11, 5.5],
			"rotation": {"angle": -45, "axis": "z", "origin": [11.5, 10.25, 9]},
			"faces": {
				"north": {"uv": [0, 0, 0.975, 0.75], "texture": "#0"},
				"east": {"uv": [0, 0, 0.625, 0.75], "texture": "#0"},
				"south": {"uv": [1, 0, 2.475, 0.75], "texture": "#0"},
				"west": {"uv": [0, 0, 0.625, 0.75], "texture": "#0"},
				"up": {"uv": [0, 0, 0.75, 1.125], "texture": "#0"},
				"down": {"uv": [0, 0, 0.75, 1.125], "texture": "#0"}
			}
		},
		{
			"name": "surround",
			"from": [10, 10.25, 5.25],
			"to": [10.625, 11, 7.0625],
			"rotation": {"angle": -45, "axis": "z", "origin": [11.5, 10.25, 9]},
			"faces": {
				"north": {"uv": [0, 0, 0.625, 0.75], "texture": "#0"},
				"east": {"uv": [0, 0, 0.813, 0.75], "texture": "#0"},
				"south": {"uv": [1, 0, 1.625, 0.75], "texture": "#0"},
				"west": {"uv": [1, 0, 2, 0.75], "texture": "#0"},
				"up": {"uv": [0, 0, 0.75, 1.125], "texture": "#0"},
				"down": {"uv": [0, 0, 0.75, 1.125], "texture": "#0"}
			}
		},
		{
			"name": "surround",
			"from": [10.25, 10.25, 7],
			"to": [10.875, 11, 10.625],
			"rotation": {"angle": -45, "axis": "z", "origin": [11.5, 10.25, 9]},
			"faces": {
				"north": {"uv": [0, 0, 0.625, 0.75], "texture": "#0"},
				"east": {"uv": [0, 0, 0.813, 0.75], "texture": "#0"},
				"south": {"uv": [0, 0, 0.625, 0.75], "texture": "#0"},
				"west": {"uv": [1, 0, 2, 0.75], "texture": "#0"},
				"up": {"uv": [0, 0, 0.75, 1.125], "texture": "#0"},
				"down": {"uv": [0, 0, 0.75, 1.125], "texture": "#0"}
			}
		},
		{
			"name": "surround",
			"from": [10, 10.25, 10.5],
			"to": [10.625, 11, 12.3125],
			"rotation": {"angle": -45, "axis": "z", "origin": [11.5, 10.25, 9]},
			"faces": {
				"north": {"uv": [0, 0, 0.625, 0.75], "texture": "#0"},
				"east": {"uv": [0, 0, 0.813, 0.75], "texture": "#0"},
				"south": {"uv": [0, 0, 0.625, 0.75], "texture": "#0"},
				"west": {"uv": [1, 0, 2, 0.75], "texture": "#0"},
				"up": {"uv": [0, 0, 0.75, 1.125], "texture": "#0"},
				"down": {"uv": [0, 0, 0.75, 1.125], "texture": "#0"}
			}
		},
		{
			"name": "surround",
			"from": [9, 10.25, 12],
			"to": [10.475, 11, 12.625],
			"rotation": {"angle": -45, "axis": "z", "origin": [11.5, 10.25, 9]},
			"faces": {
				"north": {"uv": [1, 0, 1.975, 0.75], "texture": "#0"},
				"east": {"uv": [0, 0, 0.625, 0.75], "texture": "#0"},
				"south": {"uv": [0, 0, 0.975, 0.75], "texture": "#0"},
				"west": {"uv": [0, 0, 0.625, 0.75], "texture": "#0"},
				"up": {"uv": [0, 0, 0.75, 1.125], "texture": "#0"},
				"down": {"uv": [0, 0, 0.75, 1.125], "texture": "#0"}
			}
		},
		{
			"name": "surround",
			"from": [6.8375, 10.25, 12.25],
			"to": [9.2125, 11, 12.875],
			"rotation": {"angle": -45, "axis": "z", "origin": [11.5, 10.25, 9]},
			"faces": {
				"north": {"uv": [1, 0, 1.975, 0.75], "texture": "#0"},
				"east": {"uv": [0, 0, 0.625, 0.75], "texture": "#0"},
				"south": {"uv": [0, 0, 0.975, 0.75], "texture": "#0"},
				"west": {"uv": [0, 0, 0.625, 0.75], "texture": "#0"},
				"up": {"uv": [0, 0, 0.75, 1.125], "texture": "#0"},
				"down": {"uv": [0, 0, 0.75, 1.125], "texture": "#0"}
			}
		},
		{
			"name": "surround",
			"from": [5.4755, 10.25, 12],
			"to": [6.9505, 11, 12.625],
			"rotation": {"angle": -45, "axis": "z", "origin": [11.5, 10.25, 9]},
			"faces": {
				"north": {"uv": [1, 0, 1.975, 0.75], "texture": "#0"},
				"east": {"uv": [0, 0, 0.625, 0.75], "texture": "#0"},
				"south": {"uv": [0, 0, 0.975, 0.75], "texture": "#0"},
				"west": {"uv": [0, 0, 0.625, 0.75], "texture": "#0"},
				"up": {"uv": [0, 0, 0.75, 1.125], "texture": "#0"},
				"down": {"uv": [0, 0, 0.75, 1.125], "texture": "#0"}
			}
		},
		{
			"from": [6.75, 10.75, 5.25],
			"to": [9.5, 11.25, 5.5],
			"rotation": {"angle": -45, "axis": "z", "origin": [11.5, 10.25, 9]},
			"faces": {
				"north": {"uv": [1, 0, 1.75, 0.5], "texture": "#0"},
				"east": {"uv": [1, 0, 1.25, 0.5], "texture": "#0"},
				"south": {"uv": [0, 0, 1, 0.5], "texture": "#0"},
				"west": {"uv": [1, 0, 1.25, 0.5], "texture": "#0"},
				"up": {"uv": [0, 0, 1, 0.25], "texture": "#0"},
				"down": {"uv": [9.5, 0.75, 11.75, 1], "texture": "#0"}
			}
		},
		{
			"from": [6, 10.75, 5.5],
			"to": [10, 11.25, 7],
			"rotation": {"angle": -45, "axis": "z", "origin": [11.5, 10.25, 9]},
			"faces": {
				"north": {"uv": [1, 0, 2.25, 0.5], "texture": "#0"},
				"east": {"uv": [1, 0, 2.5, 0.5], "texture": "#0"},
				"south": {"uv": [9.75, 0.5, 10.75, 1], "texture": "#0"},
				"west": {"uv": [1, 0, 2.25, 0.5], "texture": "#0"},
				"up": {"uv": [0, 0, 1, 1.25], "texture": "#0"},
				"down": {"uv": [9.5, 0.75, 11.5, 1], "texture": "#0"}
			}
		},
		{
			"from": [6, 10.75, 10.5],
			"to": [10, 11.25, 12],
			"rotation": {"angle": -45, "axis": "z", "origin": [11.5, 10.25, 9]},
			"faces": {
				"north": {"uv": [0, 0, 1, 0.25], "texture": "#0"},
				"east": {"uv": [1, 0, 2.25, 0.5], "texture": "#0"},
				"south": {"uv": [1, 0, 2, 0.25], "texture": "#0"},
				"west": {"uv": [1, 0, 2, 0.5], "texture": "#0"},
				"up": {"uv": [0, 0, 1, 1], "texture": "#0"},
				"down": {"uv": [9.5, 0.75, 11.5, 1], "texture": "#0"}
			}
		},
		{
			"from": [6.75, 10.75, 12],
			"to": [9.5, 11.25, 12.25],
			"rotation": {"angle": -45, "axis": "z", "origin": [11.5, 10.25, 9]},
			"faces": {
				"north": {"uv": [0, 0, 1, 0.5], "texture": "#0"},
				"east": {"uv": [1, 0, 1.25, 0.5], "texture": "#0"},
				"south": {"uv": [1, 0, 2.25, 0.5], "texture": "#0"},
				"west": {"uv": [1, 0, 1.25, 0.5], "texture": "#0"},
				"up": {"uv": [0, 0, 1, 0.25], "texture": "#0"},
				"down": {"uv": [9.5, 0.75, 11.5, 1], "texture": "#0"}
			}
		},
		{
			"from": [7.375, 10.75, 7],
			"to": [10.25, 11.25, 8.25],
			"rotation": {"angle": -45, "axis": "z", "origin": [11.5, 10.25, 9]},
			"faces": {
				"north": {"uv": [0, 0, 0.875, 0.5], "texture": "#0"},
				"east": {"uv": [1, 0, 2.25, 0.5], "texture": "#0"},
				"south": {"uv": [0, 0, 2.875, 0.5], "texture": "#0"},
				"west": {"uv": [9.75, 0.75, 11, 1.25], "texture": "#0"},
				"up": {"uv": [0.5, 1.25, 1.625, 2.5], "texture": "#0"},
				"down": {"uv": [9.5, 0.75, 11.5, 1], "texture": "#0"}
			}
		},
		{
			"from": [5.875, 10.75, 7],
			"to": [6.375, 11.25, 8.25],
			"rotation": {"angle": -45, "axis": "z", "origin": [11.5, 10.25, 9]},
			"faces": {
				"north": {"uv": [1, 0, 1.5, 0.5], "texture": "#0"},
				"east": {"uv": [9.5, 0.5, 10.75, 1], "texture": "#0"},
				"south": {"uv": [0, 0, 0.5, 0.5], "texture": "#0"},
				"west": {"uv": [1, 0, 2, 0.5], "texture": "#0"},
				"up": {"uv": [0, 0, 0.5, 1.25], "texture": "#0"},
				"down": {"uv": [9.5, 0.75, 12.5, 1], "texture": "#0"}
			}
		},
		{
			"from": [6.375, 11.25, 7],
			"to": [7.375, 11.5, 8.375],
			"rotation": {"angle": -45, "axis": "z", "origin": [11.5, 10.25, 9]},
			"faces": {
				"north": {"uv": [1, 0, 2, 0.25], "texture": "#0"},
				"east": {"uv": [1, 0, 2.375, 0.25], "texture": "#0"},
				"south": {"uv": [1, 0, 2, 0.25], "texture": "#0"},
				"west": {"uv": [1, 0, 2.375, 0.25], "texture": "#0"},
				"up": {"uv": [0, 0, 1, 0.875], "texture": "#0"},
				"down": {"uv": [9.5, 0.75, 11.5, 1], "texture": "#0"}
			}
		},
		{
			"from": [5.875, 10.75, 8.25],
			"to": [10.25, 11.25, 10.5],
			"rotation": {"angle": -45, "axis": "z", "origin": [11.5, 10.25, 9]},
			"faces": {
				"north": {"uv": [10.25, 0.75, 11.125, 1], "texture": "#0"},
				"east": {"uv": [1, 0, 2.25, 0.5], "texture": "#0"},
				"south": {"uv": [1, 0, 1.875, 0.25], "texture": "#0"},
				"west": {"uv": [1, 0, 2, 0.5], "texture": "#0"},
				"up": {"uv": [0, 0, 0.875, 1], "texture": "#0"},
				"down": {"uv": [9.5, 0.75, 11.5, 1], "texture": "#0"}
			}
		}
	],
	"display": {
		"thirdperson_righthand": {
			"scale": [0, 0, 0]
		},
		"thirdperson_lefthand": {
			"scale": [0, 0, 0]
		},
		"firstperson_righthand": {
			"rotation": [14, 45, 5],
			"translation": [-2.25, 4, 1.5],
			"scale": [0.5, 0.5, 0.5]
		},
		"firstperson_lefthand": {
			"rotation": [14, -135, -5],
			"translation": [-2.25, 4, 1.5],
			"scale": [0.5, 0.5, 0.5]
		},
		"ground": {
			"scale": [0.5, 0.5, 0.5]
		},
		"gui": {
			"rotation": [45, 135, 0],
			"translation": [0, 1, 0]
		},
		"head": {
			"translation": [0, 4, 0]
		},
		"fixed": {
			"rotation": [-90, -90, -90]
		}
	},
	"groups": [
		{
			"name": "body",
			"origin": [8, 8, 8],
			"children": [0,
				{
					"name": "module",
					"origin": [8, 8, 8],
					"children": [
						{
							"name": "outline",
							"origin": [8, 8, 8],
							"children": [1, 2, 3, 4, 5, 6, 7, 8, 9, 10, 11, 12, 13]
						},
						{
							"name": "controls",
							"origin": [8, 8, 8],
							"children": [14, 15, 16,
								{
									"name": "buttons",
									"origin": [9.25, 10.25, 11],
									"children": [17, 18, 19]
								},
								{
									"name": "projector",
									"origin": [7, 1.25, 8],
									"children": [20]
								}, 21, 22, 23, 24, 25, 26]
						}
					]
				},
				{
					"name": "studs",
					"origin": [8, 8, 8],
					"children": [27, 28, 29, 30, 31, 32, 33, 34]
				}
			]
		},
		{
			"name": "straps",
			"origin": [8, 8, 8],
			"children": [
				{
					"name": "sides",
					"origin": [8, 8, 8],
					"children": [35, 36]
				},
				{
					"name": "thin",
					"origin": [8, 8, 8],
					"children": [37, 38, 39, 40, 41,
						{
							"name": "strap_loop",
							"origin": [10.5, 1, 8.5],
							"children": [
								{
									"name": "strap_point",
									"origin": [10.5, 1, 8.5],
									"children": [42, 43, 44]
								},
								{
									"name": "angled_loop",
									"origin": [8, 1.5, 9],
									"children": [45,
										{
											"name": "angled",
											"origin": [8, 1.5, 9],
											"children": [46]
										}
									]
								}
							]
						},
						{
							"name": "buckle",
							"origin": [8, 8, 8],
							"children": [47, 48, 49, 50, 51]
						}
					]
				}
			]
		},
		{
			"name": "lid",
			"origin": [8, 8, 8],
			"children": [
				{
					"name": "sides",
					"origin": [8, 8, 8],
					"children": [
						{
							"name": "hinge-slight-rotate",
							"origin": [11.45, 10.25, 9],
							"children": [52, 53, 54,
								{
									"name": "socket-rotate",
									"origin": [11.125, 10.5, 9],
									"children": [55, 56]
								}
							]
						},
						{
							"name": "hinge-edges",
							"origin": [8, 11, 9],
							"children": [
								{
									"name": "rotate-edge",
									"origin": [11.125, 10.5, 9],
									"children": [57, 58]
								}, 59]
						},
						{
							"name": "hinge",
							"origin": [8, 11, 9],
							"children": [
								{
									"name": "outer",
									"origin": [8, 11, 9],
									"children": [60, 61, 62, 63, 64, 65, 66, 67, 68]
								},
								{
									"name": "inner",
									"origin": [8, 8, 8],
									"children": [
										{
											"name": "module-lid",
											"origin": [8, 8, 8],
											"children": [69, 70, 71, 72, 73, 74, 75, 76, 77, 78, 79, 80]
										},
										{
											"name": "top-lid",
											"origin": [8, 8, 8],
											"children": [
												{
													"name": "outer-layer",
													"origin": [8, 11, 9],
													"children": [81, 82, 83, 84]
												},
												{
													"name": "central",
													"origin": [8, 8, 8],
													"children": [85, 86,
														{
															"name": "opening",
															"origin": [8, 11, 9],
															"children": [87]
														}, 88]
												}
											]
										}
									]
								}
							]
						}
					]
				}
			]
		}
	]
}