{
  "type": "minecraft:crafting_shapeless",
  "ingredients": [
	  {
	  	"item": "minecraft:oak_door"
	  },
	  {
	 	 "item": "tardis:circuits"
	  }
  ],
  "result": {
    "item": "tardis:int_door"
  }
}