{
  "parent": "tardis:space/root",
  "display": {
    "icon": {
      "item": "tardis:space_helm"
    },
    "title": {
      "translate": "advancements.tardis.title.space_suit"
    },
    "description": {
      "translate": "advancements.tardis.desc.space_suit"
    },
    "frame": "task",
    "show_toast": true,
    "announce_to_chat": true,
    "hidden": false
  },
  "criteria": {
    "0": {
      "trigger": "minecraft:inventory_changed",
      "conditions": {
        "items": [
          {
            "item": "tardis:space_boots"
          },
          {
            "item": "tardis:space_chest"
          },
          {
            "item": "tardis:space_helm"
          },
          {
            "item": "tardis:space_legs"
          }
        ]
      }
    }
  },
  "requirements": [
    [
      "0"
    ]
  ]
}