{
  "parent": "block/cube_bottom_top",
  "textures": {
    "side": "tardis:block/roundel/chiseled_quartz_offset",
    "top": "tardis:block/roundel/chiseled_quartz_top_offset",
    "bottom": "tardis:block/roundel/chiseled_quartz_top_offset"
  }
}